Library\Bee\artifacts\mvdfrm\UnityEngine.TestRunner.ref.dll_090C4A8A7C09A9C7.mvfrm
Library\Bee\artifacts\mvdfrm\UnityEditor.Graphs.dll_B583D868F316B4B3.mvfrm
Library\Bee\artifacts\mvdfrm\UnityEditor.CoreModule.dll_8CE7C7860A74EB81.mvfrm
Library\Bee\artifacts\mvdfrm\UnityEditor.DeviceSimulatorModule.dll_A3D98BDD02DB6110.mvfrm
Library\Bee\artifacts\mvdfrm\UnityEditor.DiagnosticsModule.dll_A9B2CB779034CF5E.mvfrm
Library\Bee\artifacts\mvdfrm\UnityEditor.dll_645CC7B2F3CA8644.mvfrm
Library\Bee\artifacts\mvdfrm\UnityEditor.GraphViewModule.dll_2C0F398181B6B375.mvfrm
Library\Bee\artifacts\mvdfrm\UnityEditor.PackageManagerUIModule.dll_58FF51F54AB7519D.mvfrm
Library\Bee\artifacts\mvdfrm\UnityEditor.QuickSearchModule.dll_34C24C84E90BCBB7.mvfrm
Library\Bee\artifacts\mvdfrm\UnityEditor.SceneTemplateModule.dll_0BF88BD444CAB718.mvfrm
Library\Bee\artifacts\mvdfrm\UnityEditor.TextCoreFontEngineModule.dll_9F7C70000628F7DF.mvfrm
Library\Bee\artifacts\mvdfrm\UnityEditor.TextCoreTextEngineModule.dll_E764A67195ACB0FD.mvfrm
Library\Bee\artifacts\mvdfrm\UnityEditor.UIBuilderModule.dll_8097E69DF46F2CA9.mvfrm
Library\Bee\artifacts\mvdfrm\UnityEditor.UIElementsModule.dll_A9C4038FDF39051D.mvfrm
Library\Bee\artifacts\mvdfrm\UnityEditor.UIElementsSamplesModule.dll_6CA02F7057453D20.mvfrm
Library\Bee\artifacts\mvdfrm\UnityEditor.UIServiceModule.dll_B989F800DDA67CC3.mvfrm
Library\Bee\artifacts\mvdfrm\UnityEditor.UnityConnectModule.dll_0DA16FE243965AB7.mvfrm
Library\Bee\artifacts\mvdfrm\UnityEngine.AccessibilityModule.dll_3E9DF76B4540DEB5.mvfrm
Library\Bee\artifacts\mvdfrm\UnityEngine.AIModule.dll_1ECF377678BCD3B5.mvfrm
Library\Bee\artifacts\mvdfrm\UnityEngine.AndroidJNIModule.dll_280CEC63285873F3.mvfrm
Library\Bee\artifacts\mvdfrm\UnityEngine.AnimationModule.dll_FA94B5AA5C13881B.mvfrm
Library\Bee\artifacts\mvdfrm\UnityEngine.ARModule.dll_D841FC79D5DA327E.mvfrm
Library\Bee\artifacts\mvdfrm\UnityEngine.AssetBundleModule.dll_78AB7F764B7280A9.mvfrm
Library\Bee\artifacts\mvdfrm\UnityEngine.AudioModule.dll_4C26E0BAEE30EA4D.mvfrm
Library\Bee\artifacts\mvdfrm\UnityEngine.ClothModule.dll_B30F3DB5C84DC931.mvfrm
Library\Bee\artifacts\mvdfrm\UnityEngine.ClusterInputModule.dll_8D3DE4F7F51E2D7D.mvfrm
Library\Bee\artifacts\mvdfrm\UnityEngine.ClusterRendererModule.dll_A9864E4E72966E94.mvfrm
Library\Bee\artifacts\mvdfrm\UnityEngine.CoreModule.dll_B0089AD8B27A56AC.mvfrm
Library\Bee\artifacts\mvdfrm\UnityEngine.CrashReportingModule.dll_0EF17564249FCDC4.mvfrm
Library\Bee\artifacts\mvdfrm\UnityEngine.DirectorModule.dll_1D0E850F6DBEEFC9.mvfrm
Library\Bee\artifacts\mvdfrm\UnityEngine.dll_97010E8B523E1329.mvfrm
Library\Bee\artifacts\mvdfrm\UnityEngine.DSPGraphModule.dll_225FE678E01FC0EA.mvfrm
Library\Bee\artifacts\mvdfrm\UnityEngine.GameCenterModule.dll_525A367DEE9964E4.mvfrm
Library\Bee\artifacts\mvdfrm\UnityEngine.GIModule.dll_B70B8084146BBBCF.mvfrm
Library\Bee\artifacts\mvdfrm\UnityEngine.GridModule.dll_8D79B6C6CACEECA3.mvfrm
Library\Bee\artifacts\mvdfrm\UnityEngine.HotReloadModule.dll_7BDD73B03746A39D.mvfrm
Library\Bee\artifacts\mvdfrm\UnityEngine.ImageConversionModule.dll_15784BFEF4BB2688.mvfrm
Library\Bee\artifacts\mvdfrm\UnityEngine.IMGUIModule.dll_84868021B4627E2E.mvfrm
Library\Bee\artifacts\mvdfrm\UnityEngine.InputLegacyModule.dll_09F09A94E364369A.mvfrm
Library\Bee\artifacts\mvdfrm\UnityEngine.InputModule.dll_B29CA86B64690EF1.mvfrm
Library\Bee\artifacts\mvdfrm\UnityEngine.JSONSerializeModule.dll_9EB580A7447C3F3F.mvfrm
Library\Bee\artifacts\mvdfrm\UnityEngine.LocalizationModule.dll_CB8AAF4A8C9A2076.mvfrm
Library\Bee\artifacts\mvdfrm\UnityEngine.NVIDIAModule.dll_0ED02E9B146E5898.mvfrm
Library\Bee\artifacts\mvdfrm\UnityEngine.ParticleSystemModule.dll_6203BEB092B15952.mvfrm
Library\Bee\artifacts\mvdfrm\UnityEngine.PerformanceReportingModule.dll_B1FFE992CABB976B.mvfrm
Library\Bee\artifacts\mvdfrm\UnityEngine.Physics2DModule.dll_473AA59AFD107FB0.mvfrm
Library\Bee\artifacts\mvdfrm\UnityEngine.PhysicsModule.dll_27573153B0A390BE.mvfrm
Library\Bee\artifacts\mvdfrm\UnityEngine.ProfilerModule.dll_4F54BE46071876D6.mvfrm
Library\Bee\artifacts\mvdfrm\UnityEngine.RuntimeInitializeOnLoadManagerInitializerModule.dll_A1466C00CC2D5079.mvfrm
Library\Bee\artifacts\mvdfrm\UnityEngine.ScreenCaptureModule.dll_B89D2E2C58E86BA1.mvfrm
Library\Bee\artifacts\mvdfrm\UnityEngine.SharedInternalsModule.dll_99898AD46BE921D8.mvfrm
Library\Bee\artifacts\mvdfrm\UnityEngine.SpriteMaskModule.dll_3B86A90E1008FA5E.mvfrm
Library\Bee\artifacts\mvdfrm\UnityEngine.SpriteShapeModule.dll_920CACD10114B8B3.mvfrm
Library\Bee\artifacts\mvdfrm\UnityEngine.StreamingModule.dll_AF29A2FAAB9B3F59.mvfrm
Library\Bee\artifacts\mvdfrm\UnityEngine.SubstanceModule.dll_8BD4B743F6EE3D67.mvfrm
Library\Bee\artifacts\mvdfrm\UnityEngine.SubsystemsModule.dll_A6340F6FDE50E271.mvfrm
Library\Bee\artifacts\mvdfrm\UnityEngine.TerrainModule.dll_419DACC28661D9AC.mvfrm
Library\Bee\artifacts\mvdfrm\UnityEngine.TerrainPhysicsModule.dll_627E6783ABF453DF.mvfrm
Library\Bee\artifacts\mvdfrm\UnityEngine.TextCoreFontEngineModule.dll_1DDBEB531926B6AA.mvfrm
Library\Bee\artifacts\mvdfrm\UnityEngine.TextCoreTextEngineModule.dll_65C421C4A8AA6FC8.mvfrm
Library\Bee\artifacts\mvdfrm\UnityEngine.TextRenderingModule.dll_E1DCA037101FEB96.mvfrm
Library\Bee\artifacts\mvdfrm\UnityEngine.TilemapModule.dll_E09A14439E1EBAB5.mvfrm
Library\Bee\artifacts\mvdfrm\UnityEngine.TLSModule.dll_82A13C850B268212.mvfrm
Library\Bee\artifacts\mvdfrm\UnityEngine.UIElementsModule.dll_AA7270D7E17D1E68.mvfrm
Library\Bee\artifacts\mvdfrm\UnityEngine.UIElementsNativeModule.dll_A379068ABC2FC1BF.mvfrm
Library\Bee\artifacts\mvdfrm\UnityEngine.UIModule.dll_1A42D5A3D503D961.mvfrm
Library\Bee\artifacts\mvdfrm\UnityEngine.UmbraModule.dll_C6FB8CD37B5795C0.mvfrm
Library\Bee\artifacts\mvdfrm\UnityEngine.UNETModule.dll_42AEE2C1FF894C25.mvfrm
Library\Bee\artifacts\mvdfrm\UnityEngine.UnityAnalyticsModule.dll_81A32F7A3ED8AB4E.mvfrm
Library\Bee\artifacts\mvdfrm\UnityEngine.UnityConnectModule.dll_FB00F3F13E1E5B62.mvfrm
Library\Bee\artifacts\mvdfrm\UnityEngine.UnityCurlModule.dll_2DB156DBCC277A08.mvfrm
Library\Bee\artifacts\mvdfrm\UnityEngine.UnityTestProtocolModule.dll_2862E562B1409276.mvfrm
Library\Bee\artifacts\mvdfrm\UnityEngine.UnityWebRequestAssetBundleModule.dll_5C4747F40049989F.mvfrm
Library\Bee\artifacts\mvdfrm\UnityEngine.UnityWebRequestAudioModule.dll_29FC3D7151266203.mvfrm
Library\Bee\artifacts\mvdfrm\UnityEngine.UnityWebRequestModule.dll_271753A8FFAFC107.mvfrm
Library\Bee\artifacts\mvdfrm\UnityEngine.UnityWebRequestTextureModule.dll_0F473A8096F5A638.mvfrm
Library\Bee\artifacts\mvdfrm\UnityEngine.UnityWebRequestWWWModule.dll_30866720986A2C34.mvfrm
Library\Bee\artifacts\mvdfrm\UnityEngine.VehiclesModule.dll_94D17E8EE7E8BF64.mvfrm
Library\Bee\artifacts\mvdfrm\UnityEngine.VFXModule.dll_037FD4F3E193EB7F.mvfrm
Library\Bee\artifacts\mvdfrm\UnityEngine.VideoModule.dll_71306525B0C305F2.mvfrm
Library\Bee\artifacts\mvdfrm\UnityEngine.VirtualTexturingModule.dll_C805BAF994DE424A.mvfrm
Library\Bee\artifacts\mvdfrm\UnityEngine.VRModule.dll_6D14FC2976BE5ED9.mvfrm
Library\Bee\artifacts\mvdfrm\UnityEngine.WindModule.dll_2657760143B0D515.mvfrm
Library\Bee\artifacts\mvdfrm\UnityEngine.XRModule.dll_9FD3BF2DFFF8AC37.mvfrm
Library\Bee\artifacts\mvdfrm\UnityEditor.WebGL.Extensions.dll_87C6FF09E9D02DBF.mvfrm
Library\Bee\artifacts\mvdfrm\UnityEditor.WindowsStandalone.Extensions.dll_C77C205C2727372F.mvfrm